striping/striping.vcd
$date
	Tue Oct 05 11:34:15 2021
$end
$version
	Icarus Verilog
$end
$timescale
	1ns
$end
$scope module BancoPruebas_striping $end
$var wire 1 ! valid_in $end
$var wire 1 " valid_1 $end
$var wire 1 # valid_0 $end
$var wire 1 $ reset $end
$var wire 32 % lane_1 [31:0] $end
$var wire 32 & lane_0 [31:0] $end
$var wire 32 ' data_in [31:0] $end
$var wire 1 ( clk_2f $end
$scope module Probador_stripingbp $end
$var wire 1 " valid_1 $end
$var wire 1 # valid_0 $end
$var wire 32 ) lane_1 [31:0] $end
$var wire 32 * lane_0 [31:0] $end
$var reg 1 ( clk_2f $end
$var reg 32 + data_in [31:0] $end
$var reg 1 $ reset $end
$var reg 1 ! valid_in $end
$upscope $end
$scope module stripingbp $end
$var wire 1 ( clk_2f $end
$var wire 32 , data_in [31:0] $end
$var wire 1 $ reset $end
$var wire 1 ! valid_in $end
$var reg 32 - lane_0 [31:0] $end
$var reg 32 . lane_1 [31:0] $end
$var reg 1 / selector $end
$var reg 1 # valid_0 $end
$var reg 1 " valid_1 $end
$upscope $end
$upscope $end
$enddefinitions $end
#0
$dumpvars
x/
bx .
bx -
b0 ,
b0 +
bx *
bx )
0(
b0 '
bx &
bx %
0$
x#
x"
0!
$end
#2
0/
b11111111111111111111111111111111 '
b11111111111111111111111111111111 +
b11111111111111111111111111111111 ,
1!
1(
#4
0(
#6
b11101110111011101110111011101110 '
b11101110111011101110111011101110 +
b11101110111011101110111011101110 ,
1#
1/
b11111111111111111111111111111111 &
b11111111111111111111111111111111 *
b11111111111111111111111111111111 -
1(
#8
0(
#10
1"
b11101110111011101110111011101110 %
b11101110111011101110111011101110 )
b11101110111011101110111011101110 .
0/
b11011101110111011101110111011101 '
b11011101110111011101110111011101 +
b11011101110111011101110111011101 ,
1(
#12
0(
#14
b11001100110011001100110011001100 '
b11001100110011001100110011001100 +
b11001100110011001100110011001100 ,
1/
b11011101110111011101110111011101 &
b11011101110111011101110111011101 *
b11011101110111011101110111011101 -
1(
#16
0(
#18
b11001100110011001100110011001100 %
b11001100110011001100110011001100 )
b11001100110011001100110011001100 .
0/
b0 '
b0 +
b0 ,
0!
1(
#20
0(
#22
b1000000000 '
b1000000000 +
b1000000000 ,
0#
b0 &
b0 *
b0 -
1/
1(
#24
0(
#26
0"
b0 %
b0 )
b0 .
0/
b0 '
b0 +
b0 ,
1(
#28
0(
#30
b11 '
b11 +
b11 ,
1!
1/
1(
#32
0(
#34
1"
b11 %
b11 )
b11 .
0/
b100 '
b100 +
b100 ,
1(
#36
0(
#38
b10101010101010101010101010101010 '
b10101010101010101010101010101010 +
b10101010101010101010101010101010 ,
1#
1/
b100 &
b100 *
b100 -
1(
#40
0(
#42
b0 &
b0 *
b0 -
b0 %
b0 )
b0 .
0"
0#
0/
1$
1(
#44
0(
#46
b101 '
b101 +
b101 ,
0$
1(
